%YAML 1.1
%TAG !u! tag:unity3d.com,2011:
--- !u!114 &11400000
MonoBehaviour:
  m_ObjectHideFlags: 0
  m_CorrespondingSourceObject: {fileID: 0}
  m_PrefabInstance: {fileID: 0}
  m_PrefabAsset: {fileID: 0}
  m_GameObject: {fileID: 0}
  m_Enabled: 1
  m_EditorHideFlags: 0
  m_Script: {fileID: 927472823, guid: 20c2a163775f09b4cafa29b19d0c9204, type: 3}
  m_Name: FullHD TV 55
  m_EditorClassIdentifier: 
  name: FullHD TV 55
  dpi: 40
